<?xml version="1.0" encoding="utf-8"?>
<!-- Generator: Adobe Illustrator 17.0.0, SVG Export Plug-In . SVG Version: 6.00 Build 0)  -->
<!DOCTYPE svg PUBLIC "-//W3C//DTD SVG 1.1//EN" "http://www.w3.org/Graphics/SVG/1.1/DTD/svg11.dtd">
<svg version="1.1" id="Layer_1" xmlns="http://www.w3.org/2000/svg" xmlns:xlink="http://www.w3.org/1999/xlink" x="0px" y="0px"
	 width="24px" height="24px" viewBox="0 0 24 24" enable-background="new 0 0 24 24" xml:space="preserve">
<path fill="#4CD964" d="M21.156,4.256L10.585,14.827l-3.536-3.535l-1.414,1.414l4.95,4.95L20.861,7.38
	c1.961,3.769,1.369,8.531-1.791,11.69c-1.889,1.889-4.4,2.929-7.071,2.929s-5.182-1.04-7.071-2.929
	c-3.899-3.899-3.899-10.243,0-14.142c1.889-1.889,4.4-2.929,7.071-2.929c2.335,0,4.548,0.795,6.329,2.257l1.413-1.413
	C17.51,0.953,14.757,0,11.999,0C8.928,0,5.857,1.172,3.514,3.515c-4.686,4.687-4.686,12.285,0,16.971
	c2.343,2.343,5.414,3.515,8.485,3.515s6.142-1.172,8.485-3.515C24.932,16.036,25.15,8.97,21.156,4.256z"/>
</svg>
